NCEAS Sci Comp Workshop - Template - Wrangle
…
What are some common things you like to do with your data? Maybe remove rows or columns, do calculations and add new columns? This is called data wrangling. The data we get to work with are rarely, if ever, in the format we need to do our analyses. dplyr and tidyr are two R packages from the tidyverse that provide a fairly complete and extremely powerful set of functions for us to do virtually all needed wrangling quickly. Here we introduce some commonly used functions from these two packages.

Penguins Example Data

The data we’ll be using for this workshop comes from the palmerpenguins package, maintained by Allison Horst. The “penguins” dataset from this package contains size measurements for adult foraging penguins near Palmer Station, Antarctica. Data were collected and made available by Dr. Kristen Gorman and the Palmer Station Long Term Ecological Research (LTER) Program. Let’s take a look at it!

penguins

# A tibble: 344 × 8
   species island    bill_length_mm bill_depth_mm flipper_…¹ body_…² sex    year
   <fct>   <fct>              <dbl>         <dbl>      <int>   <int> <fct> <int>
 1 Adelie  Torgersen           39.1          18.7        181    3750 male   2007
 2 Adelie  Torgersen           39.5          17.4        186    3800 fema…  2007
 3 Adelie  Torgersen           40.3          18          195    3250 fema…  2007
 4 Adelie  Torgersen           NA            NA           NA      NA <NA>   2007
 5 Adelie  Torgersen           36.7          19.3        193    3450 fema…  2007
 6 Adelie  Torgersen           39.3          20.6        190    3650 male   2007
 7 Adelie  Torgersen           38.9          17.8        181    3625 fema…  2007
 8 Adelie  Torgersen           39.2          19.6        195    4675 male   2007
 9 Adelie  Torgersen           34.1          18.1        193    3475 <NA>   2007
10 Adelie  Torgersen           42            20.2        190    4250 <NA>   2007
# … with 334 more rows, and abbreviated variable names ¹​flipper_length_mm,
#   ²​body_mass_g
# ℹ Use `print(n = ...)` to see more rows
…
